{
  "language": "Solidity",
  "sources": {
    "contracts/initializer/MarketplaceInit.sol": {
      "content": "//SPDX-License-Identifier: Unlicense\npragma solidity 0.8.10;\nimport \"../libraries/LibAppStorage.sol\";\nimport \"@openzeppelin/contracts/utils/structs/EnumerableSet.sol\";\n\ncontract MarketplaceInit is UsingAppStorage {\n    using EnumerableSet for EnumerableSet.AddressSet;\n    struct InitData {\n        address feeCollector;\n        uint16 listingFee;\n        address[] tokens;\n    }\n\n    function init(InitData calldata _input) external {\n        s.feeCollector = _input.feeCollector;\n        s.listingFee = uint16(_input.listingFee);\n        for (uint256 i = 0; i < _input.tokens.length; i++) {\n            s.currencySet.add(_input.tokens[i]);\n        }\n    }\n}\n"
    },
    "contracts/libraries/LibAppStorage.sol": {
      "content": "//SPDX-License-Identifier: Unlicense\npragma solidity 0.8.10;\n\nimport \"hardhat-deploy/solc_0.8/diamond/UsingDiamondOwner.sol\";\nimport \"@openzeppelin/contracts/utils/structs/EnumerableSet.sol\";\nbytes32 constant DIAMOND_STORAGE_POSITION = keccak256(\n    \"diamond.standard.diamond.storage\"\n);\n\nuint256 constant ENTERED = 2;\nuint256 constant NOT_ENTERED = 1;\nstruct FacetAddressAndPosition {\n    address facetAddress;\n    uint96 functionSelectorPosition;\n}\nstruct FacetFunctionSelectors {\n    bytes4[] functionSelectors;\n    uint256 facetAddressPosition;\n}\nstruct DiamondStorage {\n    mapping(bytes4 => FacetAddressAndPosition) selectorToFacetAndPosition;\n    mapping(address => FacetFunctionSelectors) facetFunctionSelectors;\n    address[] facetAddresses;\n    mapping(bytes4 => bool) supportedInterfaces;\n    address contractOwner;\n}\n\nstruct SaleOffer {\n    address hostContract;\n    uint256 tokenId;\n    address seller;\n    uint256 price;\n    address currency;\n    uint16 feePercent;\n    bool closed;\n}\n\nlibrary LibDiamondStorage {\n    function diamondStorage() internal pure returns (DiamondStorage storage s) {\n        bytes32 position = DIAMOND_STORAGE_POSITION;\n        assembly {\n            s.slot := position\n        }\n    }\n}\n\nstruct AppStorage {\n    uint256 nonce;\n    uint16 listingFee;\n    mapping(uint256 => SaleOffer) offers;\n    EnumerableSet.UintSet openningIds;\n    uint256 entrant;\n    bool supportsEther;\n    EnumerableSet.AddressSet currencySet;\n    mapping(address => uint256) ethBalances;\n    mapping(address => mapping(address => uint256)) erc20Balances;\n    address feeCollector;\n}\n\ncontract UsingAppStorage is UsingDiamondOwner {\n    AppStorage internal s;\n\n    function contractOwner() internal view returns (address) {\n        return LibDiamondStorage.diamondStorage().contractOwner;\n    }\n}\n"
    },
    "@openzeppelin/contracts/utils/structs/EnumerableSet.sol": {
      "content": "// SPDX-License-Identifier: MIT\n// OpenZeppelin Contracts v4.4.1 (utils/structs/EnumerableSet.sol)\n\npragma solidity ^0.8.0;\n\n/**\n * @dev Library for managing\n * https://en.wikipedia.org/wiki/Set_(abstract_data_type)[sets] of primitive\n * types.\n *\n * Sets have the following properties:\n *\n * - Elements are added, removed, and checked for existence in constant time\n * (O(1)).\n * - Elements are enumerated in O(n). No guarantees are made on the ordering.\n *\n * ```\n * contract Example {\n *     // Add the library methods\n *     using EnumerableSet for EnumerableSet.AddressSet;\n *\n *     // Declare a set state variable\n *     EnumerableSet.AddressSet private mySet;\n * }\n * ```\n *\n * As of v3.3.0, sets of type `bytes32` (`Bytes32Set`), `address` (`AddressSet`)\n * and `uint256` (`UintSet`) are supported.\n */\nlibrary EnumerableSet {\n    // To implement this library for multiple types with as little code\n    // repetition as possible, we write it in terms of a generic Set type with\n    // bytes32 values.\n    // The Set implementation uses private functions, and user-facing\n    // implementations (such as AddressSet) are just wrappers around the\n    // underlying Set.\n    // This means that we can only create new EnumerableSets for types that fit\n    // in bytes32.\n\n    struct Set {\n        // Storage of set values\n        bytes32[] _values;\n        // Position of the value in the `values` array, plus 1 because index 0\n        // means a value is not in the set.\n        mapping(bytes32 => uint256) _indexes;\n    }\n\n    /**\n     * @dev Add a value to a set. O(1).\n     *\n     * Returns true if the value was added to the set, that is if it was not\n     * already present.\n     */\n    function _add(Set storage set, bytes32 value) private returns (bool) {\n        if (!_contains(set, value)) {\n            set._values.push(value);\n            // The value is stored at length-1, but we add 1 to all indexes\n            // and use 0 as a sentinel value\n            set._indexes[value] = set._values.length;\n            return true;\n        } else {\n            return false;\n        }\n    }\n\n    /**\n     * @dev Removes a value from a set. O(1).\n     *\n     * Returns true if the value was removed from the set, that is if it was\n     * present.\n     */\n    function _remove(Set storage set, bytes32 value) private returns (bool) {\n        // We read and store the value's index to prevent multiple reads from the same storage slot\n        uint256 valueIndex = set._indexes[value];\n\n        if (valueIndex != 0) {\n            // Equivalent to contains(set, value)\n            // To delete an element from the _values array in O(1), we swap the element to delete with the last one in\n            // the array, and then remove the last element (sometimes called as 'swap and pop').\n            // This modifies the order of the array, as noted in {at}.\n\n            uint256 toDeleteIndex = valueIndex - 1;\n            uint256 lastIndex = set._values.length - 1;\n\n            if (lastIndex != toDeleteIndex) {\n                bytes32 lastvalue = set._values[lastIndex];\n\n                // Move the last value to the index where the value to delete is\n                set._values[toDeleteIndex] = lastvalue;\n                // Update the index for the moved value\n                set._indexes[lastvalue] = valueIndex; // Replace lastvalue's index to valueIndex\n            }\n\n            // Delete the slot where the moved value was stored\n            set._values.pop();\n\n            // Delete the index for the deleted slot\n            delete set._indexes[value];\n\n            return true;\n        } else {\n            return false;\n        }\n    }\n\n    /**\n     * @dev Returns true if the value is in the set. O(1).\n     */\n    function _contains(Set storage set, bytes32 value) private view returns (bool) {\n        return set._indexes[value] != 0;\n    }\n\n    /**\n     * @dev Returns the number of values on the set. O(1).\n     */\n    function _length(Set storage set) private view returns (uint256) {\n        return set._values.length;\n    }\n\n    /**\n     * @dev Returns the value stored at position `index` in the set. O(1).\n     *\n     * Note that there are no guarantees on the ordering of values inside the\n     * array, and it may change when more values are added or removed.\n     *\n     * Requirements:\n     *\n     * - `index` must be strictly less than {length}.\n     */\n    function _at(Set storage set, uint256 index) private view returns (bytes32) {\n        return set._values[index];\n    }\n\n    /**\n     * @dev Return the entire set in an array\n     *\n     * WARNING: This operation will copy the entire storage to memory, which can be quite expensive. This is designed\n     * to mostly be used by view accessors that are queried without any gas fees. Developers should keep in mind that\n     * this function has an unbounded cost, and using it as part of a state-changing function may render the function\n     * uncallable if the set grows to a point where copying to memory consumes too much gas to fit in a block.\n     */\n    function _values(Set storage set) private view returns (bytes32[] memory) {\n        return set._values;\n    }\n\n    // Bytes32Set\n\n    struct Bytes32Set {\n        Set _inner;\n    }\n\n    /**\n     * @dev Add a value to a set. O(1).\n     *\n     * Returns true if the value was added to the set, that is if it was not\n     * already present.\n     */\n    function add(Bytes32Set storage set, bytes32 value) internal returns (bool) {\n        return _add(set._inner, value);\n    }\n\n    /**\n     * @dev Removes a value from a set. O(1).\n     *\n     * Returns true if the value was removed from the set, that is if it was\n     * present.\n     */\n    function remove(Bytes32Set storage set, bytes32 value) internal returns (bool) {\n        return _remove(set._inner, value);\n    }\n\n    /**\n     * @dev Returns true if the value is in the set. O(1).\n     */\n    function contains(Bytes32Set storage set, bytes32 value) internal view returns (bool) {\n        return _contains(set._inner, value);\n    }\n\n    /**\n     * @dev Returns the number of values in the set. O(1).\n     */\n    function length(Bytes32Set storage set) internal view returns (uint256) {\n        return _length(set._inner);\n    }\n\n    /**\n     * @dev Returns the value stored at position `index` in the set. O(1).\n     *\n     * Note that there are no guarantees on the ordering of values inside the\n     * array, and it may change when more values are added or removed.\n     *\n     * Requirements:\n     *\n     * - `index` must be strictly less than {length}.\n     */\n    function at(Bytes32Set storage set, uint256 index) internal view returns (bytes32) {\n        return _at(set._inner, index);\n    }\n\n    /**\n     * @dev Return the entire set in an array\n     *\n     * WARNING: This operation will copy the entire storage to memory, which can be quite expensive. This is designed\n     * to mostly be used by view accessors that are queried without any gas fees. Developers should keep in mind that\n     * this function has an unbounded cost, and using it as part of a state-changing function may render the function\n     * uncallable if the set grows to a point where copying to memory consumes too much gas to fit in a block.\n     */\n    function values(Bytes32Set storage set) internal view returns (bytes32[] memory) {\n        return _values(set._inner);\n    }\n\n    // AddressSet\n\n    struct AddressSet {\n        Set _inner;\n    }\n\n    /**\n     * @dev Add a value to a set. O(1).\n     *\n     * Returns true if the value was added to the set, that is if it was not\n     * already present.\n     */\n    function add(AddressSet storage set, address value) internal returns (bool) {\n        return _add(set._inner, bytes32(uint256(uint160(value))));\n    }\n\n    /**\n     * @dev Removes a value from a set. O(1).\n     *\n     * Returns true if the value was removed from the set, that is if it was\n     * present.\n     */\n    function remove(AddressSet storage set, address value) internal returns (bool) {\n        return _remove(set._inner, bytes32(uint256(uint160(value))));\n    }\n\n    /**\n     * @dev Returns true if the value is in the set. O(1).\n     */\n    function contains(AddressSet storage set, address value) internal view returns (bool) {\n        return _contains(set._inner, bytes32(uint256(uint160(value))));\n    }\n\n    /**\n     * @dev Returns the number of values in the set. O(1).\n     */\n    function length(AddressSet storage set) internal view returns (uint256) {\n        return _length(set._inner);\n    }\n\n    /**\n     * @dev Returns the value stored at position `index` in the set. O(1).\n     *\n     * Note that there are no guarantees on the ordering of values inside the\n     * array, and it may change when more values are added or removed.\n     *\n     * Requirements:\n     *\n     * - `index` must be strictly less than {length}.\n     */\n    function at(AddressSet storage set, uint256 index) internal view returns (address) {\n        return address(uint160(uint256(_at(set._inner, index))));\n    }\n\n    /**\n     * @dev Return the entire set in an array\n     *\n     * WARNING: This operation will copy the entire storage to memory, which can be quite expensive. This is designed\n     * to mostly be used by view accessors that are queried without any gas fees. Developers should keep in mind that\n     * this function has an unbounded cost, and using it as part of a state-changing function may render the function\n     * uncallable if the set grows to a point where copying to memory consumes too much gas to fit in a block.\n     */\n    function values(AddressSet storage set) internal view returns (address[] memory) {\n        bytes32[] memory store = _values(set._inner);\n        address[] memory result;\n\n        assembly {\n            result := store\n        }\n\n        return result;\n    }\n\n    // UintSet\n\n    struct UintSet {\n        Set _inner;\n    }\n\n    /**\n     * @dev Add a value to a set. O(1).\n     *\n     * Returns true if the value was added to the set, that is if it was not\n     * already present.\n     */\n    function add(UintSet storage set, uint256 value) internal returns (bool) {\n        return _add(set._inner, bytes32(value));\n    }\n\n    /**\n     * @dev Removes a value from a set. O(1).\n     *\n     * Returns true if the value was removed from the set, that is if it was\n     * present.\n     */\n    function remove(UintSet storage set, uint256 value) internal returns (bool) {\n        return _remove(set._inner, bytes32(value));\n    }\n\n    /**\n     * @dev Returns true if the value is in the set. O(1).\n     */\n    function contains(UintSet storage set, uint256 value) internal view returns (bool) {\n        return _contains(set._inner, bytes32(value));\n    }\n\n    /**\n     * @dev Returns the number of values on the set. O(1).\n     */\n    function length(UintSet storage set) internal view returns (uint256) {\n        return _length(set._inner);\n    }\n\n    /**\n     * @dev Returns the value stored at position `index` in the set. O(1).\n     *\n     * Note that there are no guarantees on the ordering of values inside the\n     * array, and it may change when more values are added or removed.\n     *\n     * Requirements:\n     *\n     * - `index` must be strictly less than {length}.\n     */\n    function at(UintSet storage set, uint256 index) internal view returns (uint256) {\n        return uint256(_at(set._inner, index));\n    }\n\n    /**\n     * @dev Return the entire set in an array\n     *\n     * WARNING: This operation will copy the entire storage to memory, which can be quite expensive. This is designed\n     * to mostly be used by view accessors that are queried without any gas fees. Developers should keep in mind that\n     * this function has an unbounded cost, and using it as part of a state-changing function may render the function\n     * uncallable if the set grows to a point where copying to memory consumes too much gas to fit in a block.\n     */\n    function values(UintSet storage set) internal view returns (uint256[] memory) {\n        bytes32[] memory store = _values(set._inner);\n        uint256[] memory result;\n\n        assembly {\n            result := store\n        }\n\n        return result;\n    }\n}\n"
    },
    "hardhat-deploy/solc_0.8/diamond/UsingDiamondOwner.sol": {
      "content": "// SPDX-License-Identifier: MIT\npragma solidity ^0.8.0;\n\nimport \"./libraries/LibDiamond.sol\";\n\ncontract UsingDiamondOwner {\n    modifier onlyOwner() {\n        LibDiamond.DiamondStorage storage ds = LibDiamond.diamondStorage();\n        require(msg.sender == ds.contractOwner, \"Only owner is allowed to perform this action\");\n        _;\n    }\n}\n"
    },
    "hardhat-deploy/solc_0.8/diamond/libraries/LibDiamond.sol": {
      "content": "// SPDX-License-Identifier: MIT\npragma solidity ^0.8.0;\n\n/******************************************************************************\\\n* Author: Nick Mudge <nick@perfectabstractions.com> (https://twitter.com/mudgen)\n* EIP-2535 Diamonds: https://eips.ethereum.org/EIPS/eip-2535\n/******************************************************************************/\nimport { IDiamondCut } from \"../interfaces/IDiamondCut.sol\";\n\nlibrary LibDiamond {\n    bytes32 constant DIAMOND_STORAGE_POSITION = keccak256(\"diamond.standard.diamond.storage\");\n\n    struct FacetAddressAndPosition {\n        address facetAddress;\n        uint96 functionSelectorPosition; // position in facetFunctionSelectors.functionSelectors array\n    }\n\n    struct FacetFunctionSelectors {\n        bytes4[] functionSelectors;\n        uint256 facetAddressPosition; // position of facetAddress in facetAddresses array\n    }\n\n    struct DiamondStorage {\n        // maps function selector to the facet address and\n        // the position of the selector in the facetFunctionSelectors.selectors array\n        mapping(bytes4 => FacetAddressAndPosition) selectorToFacetAndPosition;\n        // maps facet addresses to function selectors\n        mapping(address => FacetFunctionSelectors) facetFunctionSelectors;\n        // facet addresses\n        address[] facetAddresses;\n        // Used to query if a contract implements an interface.\n        // Used to implement ERC-165.\n        mapping(bytes4 => bool) supportedInterfaces;\n        // owner of the contract\n        address contractOwner;\n    }\n\n    function diamondStorage() internal pure returns (DiamondStorage storage ds) {\n        bytes32 position = DIAMOND_STORAGE_POSITION;\n        assembly {\n            ds.slot := position\n        }\n    }\n\n    event OwnershipTransferred(address indexed previousOwner, address indexed newOwner);\n\n    function setContractOwner(address _newOwner) internal {\n        DiamondStorage storage ds = diamondStorage();\n        address previousOwner = ds.contractOwner;\n        ds.contractOwner = _newOwner;\n        emit OwnershipTransferred(previousOwner, _newOwner);\n    }\n\n    function contractOwner() internal view returns (address contractOwner_) {\n        contractOwner_ = diamondStorage().contractOwner;\n    }\n\n    function enforceIsContractOwner() internal view {\n        require(msg.sender == diamondStorage().contractOwner, \"LibDiamond: Must be contract owner\");\n    }\n\n    event DiamondCut(IDiamondCut.FacetCut[] _diamondCut, address _init, bytes _calldata);\n\n    // Internal function version of diamondCut\n    function diamondCut(\n        IDiamondCut.FacetCut[] memory _diamondCut,\n        address _init,\n        bytes memory _calldata\n    ) internal {\n        for (uint256 facetIndex; facetIndex < _diamondCut.length; facetIndex++) {\n            IDiamondCut.FacetCutAction action = _diamondCut[facetIndex].action;\n            if (action == IDiamondCut.FacetCutAction.Add) {\n                addFunctions(_diamondCut[facetIndex].facetAddress, _diamondCut[facetIndex].functionSelectors);\n            } else if (action == IDiamondCut.FacetCutAction.Replace) {\n                replaceFunctions(_diamondCut[facetIndex].facetAddress, _diamondCut[facetIndex].functionSelectors);\n            } else if (action == IDiamondCut.FacetCutAction.Remove) {\n                removeFunctions(_diamondCut[facetIndex].facetAddress, _diamondCut[facetIndex].functionSelectors);\n            } else {\n                revert(\"LibDiamondCut: Incorrect FacetCutAction\");\n            }\n        }\n        emit DiamondCut(_diamondCut, _init, _calldata);\n        initializeDiamondCut(_init, _calldata);\n    }\n\n    function addFunctions(address _facetAddress, bytes4[] memory _functionSelectors) internal {\n        require(_functionSelectors.length > 0, \"LibDiamondCut: No selectors in facet to cut\");\n        DiamondStorage storage ds = diamondStorage();        \n        require(_facetAddress != address(0), \"LibDiamondCut: Add facet can't be address(0)\");\n        uint96 selectorPosition = uint96(ds.facetFunctionSelectors[_facetAddress].functionSelectors.length);\n        // add new facet address if it does not exist\n        if (selectorPosition == 0) {\n            addFacet(ds, _facetAddress);            \n        }\n        for (uint256 selectorIndex; selectorIndex < _functionSelectors.length; selectorIndex++) {\n            bytes4 selector = _functionSelectors[selectorIndex];\n            address oldFacetAddress = ds.selectorToFacetAndPosition[selector].facetAddress;\n            require(oldFacetAddress == address(0), \"LibDiamondCut: Can't add function that already exists\");\n            addFunction(ds, selector, selectorPosition, _facetAddress);\n            selectorPosition++;\n        }\n    }\n\n    function replaceFunctions(address _facetAddress, bytes4[] memory _functionSelectors) internal {\n        require(_functionSelectors.length > 0, \"LibDiamondCut: No selectors in facet to cut\");\n        DiamondStorage storage ds = diamondStorage();\n        require(_facetAddress != address(0), \"LibDiamondCut: Add facet can't be address(0)\");\n        uint96 selectorPosition = uint96(ds.facetFunctionSelectors[_facetAddress].functionSelectors.length);\n        // add new facet address if it does not exist\n        if (selectorPosition == 0) {\n            addFacet(ds, _facetAddress);\n        }\n        for (uint256 selectorIndex; selectorIndex < _functionSelectors.length; selectorIndex++) {\n            bytes4 selector = _functionSelectors[selectorIndex];\n            address oldFacetAddress = ds.selectorToFacetAndPosition[selector].facetAddress;\n            require(oldFacetAddress != _facetAddress, \"LibDiamondCut: Can't replace function with same function\");\n            removeFunction(ds, oldFacetAddress, selector);\n            addFunction(ds, selector, selectorPosition, _facetAddress);\n            selectorPosition++;\n        }\n    }\n\n    function removeFunctions(address _facetAddress, bytes4[] memory _functionSelectors) internal {\n        require(_functionSelectors.length > 0, \"LibDiamondCut: No selectors in facet to cut\");\n        DiamondStorage storage ds = diamondStorage();\n        // if function does not exist then do nothing and return\n        require(_facetAddress == address(0), \"LibDiamondCut: Remove facet address must be address(0)\");\n        for (uint256 selectorIndex; selectorIndex < _functionSelectors.length; selectorIndex++) {\n            bytes4 selector = _functionSelectors[selectorIndex];\n            address oldFacetAddress = ds.selectorToFacetAndPosition[selector].facetAddress;\n            removeFunction(ds, oldFacetAddress, selector);\n        }\n    }\n\n    function addFacet(DiamondStorage storage ds, address _facetAddress) internal {\n        enforceHasContractCode(_facetAddress, \"LibDiamondCut: New facet has no code\");\n        ds.facetFunctionSelectors[_facetAddress].facetAddressPosition = ds.facetAddresses.length;\n        ds.facetAddresses.push(_facetAddress);\n    }    \n\n\n    function addFunction(DiamondStorage storage ds, bytes4 _selector, uint96 _selectorPosition, address _facetAddress) internal {\n        ds.selectorToFacetAndPosition[_selector].functionSelectorPosition = _selectorPosition;\n        ds.facetFunctionSelectors[_facetAddress].functionSelectors.push(_selector);\n        ds.selectorToFacetAndPosition[_selector].facetAddress = _facetAddress;\n    }\n\n    function removeFunction(DiamondStorage storage ds, address _facetAddress, bytes4 _selector) internal {        \n        require(_facetAddress != address(0), \"LibDiamondCut: Can't remove function that doesn't exist\");\n        // an immutable function is a function defined directly in a diamond\n        require(_facetAddress != address(this), \"LibDiamondCut: Can't remove immutable function\");\n        // replace selector with last selector, then delete last selector\n        uint256 selectorPosition = ds.selectorToFacetAndPosition[_selector].functionSelectorPosition;\n        uint256 lastSelectorPosition = ds.facetFunctionSelectors[_facetAddress].functionSelectors.length - 1;\n        // if not the same then replace _selector with lastSelector\n        if (selectorPosition != lastSelectorPosition) {\n            bytes4 lastSelector = ds.facetFunctionSelectors[_facetAddress].functionSelectors[lastSelectorPosition];\n            ds.facetFunctionSelectors[_facetAddress].functionSelectors[selectorPosition] = lastSelector;\n            ds.selectorToFacetAndPosition[lastSelector].functionSelectorPosition = uint96(selectorPosition);\n        }\n        // delete the last selector\n        ds.facetFunctionSelectors[_facetAddress].functionSelectors.pop();\n        delete ds.selectorToFacetAndPosition[_selector];\n\n        // if no more selectors for facet address then delete the facet address\n        if (lastSelectorPosition == 0) {\n            // replace facet address with last facet address and delete last facet address\n            uint256 lastFacetAddressPosition = ds.facetAddresses.length - 1;\n            uint256 facetAddressPosition = ds.facetFunctionSelectors[_facetAddress].facetAddressPosition;\n            if (facetAddressPosition != lastFacetAddressPosition) {\n                address lastFacetAddress = ds.facetAddresses[lastFacetAddressPosition];\n                ds.facetAddresses[facetAddressPosition] = lastFacetAddress;\n                ds.facetFunctionSelectors[lastFacetAddress].facetAddressPosition = facetAddressPosition;\n            }\n            ds.facetAddresses.pop();\n            delete ds.facetFunctionSelectors[_facetAddress].facetAddressPosition;\n        }\n    }\n\n    function initializeDiamondCut(address _init, bytes memory _calldata) internal {\n        if (_init == address(0)) {\n            require(_calldata.length == 0, \"LibDiamondCut: _init is address(0) but_calldata is not empty\");\n        } else {\n            require(_calldata.length > 0, \"LibDiamondCut: _calldata is empty but _init is not address(0)\");\n            if (_init != address(this)) {\n                enforceHasContractCode(_init, \"LibDiamondCut: _init address has no code\");\n            }\n            (bool success, bytes memory error) = _init.delegatecall(_calldata);\n            if (!success) {\n                if (error.length > 0) {\n                    // bubble up the error\n                    revert(string(error));\n                } else {\n                    revert(\"LibDiamondCut: _init function reverted\");\n                }\n            }\n        }\n    }\n\n    function enforceHasContractCode(address _contract, string memory _errorMessage) internal view {\n        uint256 contractSize;\n        assembly {\n            contractSize := extcodesize(_contract)\n        }\n        require(contractSize > 0, _errorMessage);\n    }\n}\n"
    },
    "hardhat-deploy/solc_0.8/diamond/interfaces/IDiamondCut.sol": {
      "content": "// SPDX-License-Identifier: MIT\npragma solidity ^0.8.0;\n\n/******************************************************************************\\\n* Author: Nick Mudge <nick@perfectabstractions.com> (https://twitter.com/mudgen)\n* EIP-2535 Diamonds: https://eips.ethereum.org/EIPS/eip-2535\n/******************************************************************************/\n\ninterface IDiamondCut {\n    enum FacetCutAction {Add, Replace, Remove}\n    // Add=0, Replace=1, Remove=2\n\n    struct FacetCut {\n        address facetAddress;\n        FacetCutAction action;\n        bytes4[] functionSelectors;\n    }\n\n    /// @notice Add/replace/remove any number of functions and optionally execute\n    ///         a function with delegatecall\n    /// @param _diamondCut Contains the facet addresses and function selectors\n    /// @param _init The address of the contract or facet to execute _calldata\n    /// @param _calldata A function call, including function selector and arguments\n    ///                  _calldata is executed with delegatecall on _init\n    function diamondCut(\n        FacetCut[] calldata _diamondCut,\n        address _init,\n        bytes calldata _calldata\n    ) external;\n\n    event DiamondCut(FacetCut[] _diamondCut, address _init, bytes _calldata);\n}\n"
    }
  },
  "settings": {
    "optimizer": {
      "enabled": false,
      "runs": 200
    },
    "outputSelection": {
      "*": {
        "*": [
          "abi",
          "evm.bytecode",
          "evm.deployedBytecode",
          "evm.methodIdentifiers",
          "metadata",
          "devdoc",
          "userdoc",
          "storageLayout",
          "evm.gasEstimates"
        ],
        "": [
          "ast"
        ]
      }
    },
    "metadata": {
      "useLiteralContent": true
    }
  }
}