{
  "language": "Solidity",
  "sources": {
    "contracts/DirectSaleFacet.sol": {
      "content": "//SPDX-License-Identifier: Unlicense\npragma solidity 0.8.10;\nimport \"../libraries/LibAppStorage.sol\";\n\nimport \"@openzeppelin/contracts/token/ERC20/utils/SafeERC20.sol\";\nimport \"@openzeppelin/contracts/utils/math/SafeMath.sol\";\nimport \"@openzeppelin/contracts/interfaces/IERC721.sol\";\nimport \"@openzeppelin/contracts/interfaces/IERC721Receiver.sol\";\nimport \"@openzeppelin/contracts/utils/structs/EnumerableSet.sol\";\n\n/// @title Direct Sale Facet\n/// @author 0xc0ffee\n/// @notice A simple application for user to order/buy an ERC721 token\n/// @dev Simple as it\ncontract DirectSaleFacet is UsingAppStorage {\n    using SafeERC20 for IERC20;\n    using SafeMath for uint256;\n    using EnumerableSet for EnumerableSet.UintSet;\n\n    /// @notice Sell offer created, if currency is address(0), then it must be bought by ether\n    /// @dev Details of the offer can be fetched with offerId\n    /// @param offerId id of the offer\n    /// @param hostContract contract address of ERC721 token\n    /// @param tokenId tokenId\n    /// @param seller who created the offer\n    /// @param currency ERC20 used as currency\n    /// @param price in unit of ERC20 above\n    event OfferCreated(\n        uint256 offerId,\n        address indexed hostContract,\n        uint256 tokenId,\n        address indexed seller,\n        address indexed currency,\n        uint256 price\n    );\n\n    /// @notice Offer closed by a buyer\n    /// @dev Details of the offer can be fetched with offerId\n    /// @param offerId id of the offer\n    /// @param seller who created the offer\n    /// @param currency ERC20 used as currency\n    /// @param buyer who bought the offer\n    /// @param price in unit of currency\n    event OfferClosed(\n        uint256 offerId,\n        address indexed seller,\n        address indexed buyer,\n        address indexed currency,\n        uint256 price\n    );\n\n    /// @notice Offer closed by the seller\n    /// @dev Details of the offer can be fetched with offerId\n    /// @param offerId id of the offer\n    event OfferCancelled(uint256 offerId);\n\n    /// @notice Offer price was replaced\n    /// @dev The offer with old price will be replaced by a new offer with new price\n    /// @param offerId the previous id of offer\n    /// @param newOfferId the new id of offer whose price replaced\n    event OfferReplaced(uint256 offerId, uint256 newOfferId);\n\n    /// @notice Listing fee changed by owner, fee is in percent, i.e 20% => 2000\n    /// @dev All offers that created before this event stay unchanged\n    /// @param fee new listing fee, in percent\n    event ChangeListingFee(uint16 fee);\n\n    /// @notice for IERC721Receiver interface\n    /// @dev Used by safeTransferFrom\n    function onERC721Received(\n        address,\n        address,\n        uint256,\n        bytes memory\n    ) external pure returns (bytes4) {\n        return IERC721Receiver.onERC721Received.selector;\n    }\n\n    modifier nonReentrant() {\n        require(\n            LibAppStorage.DirectSaleStorage().entrant != ENTERED,\n            \"Reentrancy guard\"\n        );\n        LibAppStorage.DirectSaleStorage().entrant = ENTERED;\n        _;\n        LibAppStorage.DirectSaleStorage().entrant = NOT_ENTERED;\n    }\n\n    /// @notice Create an offer to sell a ERC721 token\n    /// @dev Explain to a developer any extra details\n    /// @param hostContract address of ERC721 contract\n    /// @param tokenId to sell\n    /// @param price in unit of currencyToken\n    /// @param currencyToken ERC20 token used as currency for the order\n    function createOffer(\n        address hostContract,\n        uint256 tokenId,\n        uint256 price,\n        address currencyToken\n    ) external {\n        // CHECKS\n        require(_supportsCurrency(currencyToken), \"Currency not supported\");\n        require(price > 0, \"Price must be positive\");\n        require(\n            IERC721(hostContract).supportsInterface(type(IERC721).interfaceId),\n            \"Host contract is not supported\"\n        );\n        require(\n            IERC721(hostContract).getApproved(tokenId) == address(this) ||\n                IERC721(hostContract).isApprovedForAll(\n                    msg.sender,\n                    address(this)\n                ),\n            \"Token has not been approved\"\n        );\n\n        // EFFECTS\n        DirectSaleData storage dsd = LibAppStorage.DirectSaleStorage();\n        // increase nonce\n        dsd.nonce = dsd.nonce.add(1);\n        // create offer\n        dsd.offers[dsd.nonce] = SaleOffer({\n            hostContract: hostContract,\n            tokenId: tokenId,\n            seller: msg.sender,\n            price: price,\n            currency: currencyToken,\n            feePercent: listingFee(),\n            closed: false\n        });\n        // mark offerId as openning\n        dsd.openningIds.add(dsd.nonce);\n\n        // INTERACTIONS\n        IERC721(hostContract).transferFrom(msg.sender, address(this), tokenId);\n\n        emit OfferCreated(\n            dsd.nonce,\n            hostContract,\n            tokenId,\n            msg.sender,\n            currencyToken,\n            price\n        );\n    }\n\n    /// @notice Cancel an openning offer\n    /// @dev This mark the offer closed and transfer back to the seller\n    /// @param offerId Id of the offer\n    function cancelOffer(uint256 offerId) external {\n        // CHECKS\n        require(_openning(offerId), \"Offer invalid\");\n        DirectSaleData storage dsd = LibAppStorage.DirectSaleStorage();\n        require(\n            dsd.offers[offerId].seller == msg.sender,\n            \"Only seller allowed\"\n        );\n\n        // EFFECTS\n        dsd.offers[offerId].closed = true;\n        dsd.openningIds.remove(offerId);\n\n        // INTERACTIONS\n        IERC721(dsd.offers[offerId].hostContract).safeTransferFrom(\n            address(this),\n            dsd.offers[offerId].seller,\n            dsd.offers[offerId].tokenId,\n            \"\"\n        );\n        emit OfferCancelled(offerId);\n    }\n\n    /// @notice Change price of an offer\n    /// @dev This function creates new offer with new nonce to prevent front-running\n    /// @param offerId Id of the offer\n    /// @param newPrice new price of the offer, must be greater than 0 and different from the previous price\n    function changeOfferPrice(uint256 offerId, uint256 newPrice) external {\n        // CHECKS\n        require(_openning(offerId), \"Offer invalid\");\n        DirectSaleData storage dsd = LibAppStorage.DirectSaleStorage();\n        require(\n            dsd.offers[offerId].seller == msg.sender,\n            \"Only seller allowed\"\n        );\n        require(\n            newPrice > 0 && newPrice != dsd.offers[offerId].price,\n            \"New price invalid\"\n        );\n\n        // EFFECTS\n        // create new offer\n        dsd.nonce = dsd.nonce.add(1);\n        dsd.offers[dsd.nonce] = dsd.offers[offerId];\n        dsd.offers[dsd.nonce].price = newPrice;\n        // remove old\n        dsd.offers[offerId].closed = true;\n        dsd.openningIds.remove(offerId);\n        dsd.openningIds.add(dsd.nonce);\n\n        emit OfferReplaced(offerId, dsd.nonce);\n    }\n\n    /// @notice Buy an offer, the seller pay the listing fee\n    /// @dev The token wrapped in the offer is transfered to msg.sender and the price of offer is transfered from msg.sender to this contract , also enable reentrant guard\n    /// @param offerId id of the offer\n    function buyOffer(uint256 offerId) external nonReentrant {\n        // CHECKS\n        require(_openning(offerId), \"Offer invalid\");\n        DirectSaleData storage dsd = LibAppStorage.DirectSaleStorage();\n        require(\n            dsd.offers[offerId].currency != address(0),\n            \"Offer could not be paid by ether\"\n        );\n        require(\n            msg.sender != dsd.offers[offerId].seller,\n            \"Seller is not allowed\"\n        );\n        require(\n            IERC20(dsd.offers[offerId].currency).allowance(\n                msg.sender,\n                address(this)\n            ) >= dsd.offers[offerId].price,\n            \"Allowance not enough\"\n        );\n        // EFFECTS\n\n        uint256 fee = calculateOfferFee(\n            dsd.offers[offerId].price,\n            dsd.offers[offerId].feePercent\n        ); // fee cut to owner\n\n        dsd.offers[offerId].closed = true;\n        dsd.openningIds.remove(offerId);\n        WithdrawalData storage wd = LibAppStorage.WithdrawalStorage();\n        wd.erc20Balances[dsd.offers[offerId].currency][\n            dsd.offers[offerId].seller\n        ] = wd\n        .erc20Balances[dsd.offers[offerId].currency][dsd.offers[offerId].seller]\n            .add(dsd.offers[offerId].price.sub(fee)); // seller gets (price - fee)\n        wd.erc20Balances[dsd.offers[offerId].currency][\n            LibAppStorage.diamondStorage().contractOwner\n        ] = wd\n        .erc20Balances[dsd.offers[offerId].currency][\n            LibAppStorage.diamondStorage().contractOwner\n        ].add(fee); // owner gets fee\n\n        // INTERACTIONS\n        IERC721(dsd.offers[offerId].hostContract).safeTransferFrom(\n            address(this),\n            msg.sender,\n            dsd.offers[offerId].tokenId,\n            \"\"\n        );\n\n        IERC20(dsd.offers[offerId].currency).safeTransferFrom(\n            msg.sender,\n            address(this),\n            dsd.offers[offerId].price\n        );\n\n        emit OfferClosed(\n            offerId,\n            dsd.offers[offerId].seller,\n            msg.sender,\n            dsd.offers[offerId].currency,\n            dsd.offers[offerId].price\n        );\n    }\n\n    /// @notice Buy offer using ether as currency\n    /// @dev if msg.value is greater than the offer price, then buyer can withdraw that amount later\n    /// @param offerId id of the offer\n    function buyOfferWithETH(uint256 offerId) external payable {\n        // CHECKS\n        require(_openning(offerId), \"Offer invalid\");\n        DirectSaleData storage dsd = LibAppStorage.DirectSaleStorage();\n        require(\n            dsd.offers[offerId].currency == address(0),\n            \"Offer must be paid by ether\"\n        );\n        require(\n            msg.sender != dsd.offers[offerId].seller,\n            \"Seller is not allowed\"\n        );\n        require(\n            msg.value >= dsd.offers[offerId].price,\n            \"Ether value not enough\"\n        );\n\n        // EFFECTS\n        uint256 fee = calculateOfferFee(\n            dsd.offers[offerId].price,\n            dsd.offers[offerId].feePercent\n        ); // fee cut to owner\n\n        dsd.offers[offerId].closed = true;\n        dsd.openningIds.remove(offerId);\n        WithdrawalData storage wd = LibAppStorage.WithdrawalStorage();\n        wd.ethBalances[dsd.offers[offerId].seller] = wd\n            .ethBalances[dsd.offers[offerId].seller]\n            .add(dsd.offers[offerId].price.sub(fee)); // seller's pending balance increases by(price - fee)\n        wd.ethBalances[LibAppStorage.diamondStorage().contractOwner] = wd\n            .ethBalances[LibAppStorage.diamondStorage().contractOwner]\n            .add(fee); // owner's pending balance increases by (fee)\n        wd.ethBalances[msg.sender] = wd.ethBalances[msg.sender].add(\n            msg.value.sub(dsd.offers[offerId].price)\n        ); // buyer's pending balance incrrease by (msg.value - price)\n        // INTERACTIONS\n        IERC721(dsd.offers[offerId].hostContract).safeTransferFrom(\n            address(this),\n            msg.sender,\n            dsd.offers[offerId].tokenId,\n            \"\"\n        );\n        emit OfferClosed(\n            offerId,\n            dsd.offers[offerId].seller,\n            msg.sender,\n            dsd.offers[offerId].currency,\n            dsd.offers[offerId].price\n        );\n    }\n\n    /// @notice Owner change listing fee, this new fee will not affect all offers that created before this change\n    /// @dev fee is in format that, i.e 5% => 500\n    /// @param fee new fee\n\n    function changeListingFee(uint16 fee) external onlyOwner {\n        LibAppStorage.DirectSaleStorage().listingFee = fee;\n        emit ChangeListingFee(fee);\n    }\n\n    /// @notice All offer ids of the openning offers\n    /// @dev The ids can be used to retrieve offer details\n    /// @return returns array of openning offer ids\n    function openningIds() external view returns (uint256[] memory) {\n        return LibAppStorage.DirectSaleStorage().openningIds.values();\n    }\n\n    /// @notice Total offer in marketplace, included offer was replaced\n    function totalSales() external view returns (uint256) {\n        return LibAppStorage.DirectSaleStorage().nonce;\n    }\n\n    /// @notice Current listing fee that the new sell offer has to accept\n    function listingFee() public view returns (uint16) {\n        return LibAppStorage.DirectSaleStorage().listingFee;\n    }\n\n    /// @notice Calculate fee the seller has to pay\n    /// @dev Can be used before use createOffer\n    /// @param amount the price of the offer that will be listed\n    /// @param feePercent feePercent input, should be fetch from listingFee()\n    /// @return return fee that seller has to pay\n    function calculateOfferFee(uint256 amount, uint16 feePercent)\n        public\n        pure\n        returns (uint256)\n    {\n        return amount.mul(feePercent).div(10000);\n    }\n\n    /// @notice Get offer details\n    /// @dev Get offer details\n    /// @param offerId id of the offer\n    /// @return\n    function getOffer(uint256 offerId)\n        external\n        view\n        returns (SaleOffer memory)\n    {\n        return LibAppStorage.DirectSaleStorage().offers[offerId];\n    }\n\n    /// @dev Check whether currency is enabled for listing\n    /// @param currency address of ERC20, or ether if currency = address(0)\n    /// @return true of false\n    function _supportsCurrency(address currency) private view returns (bool) {\n        if (currency == address(0))\n            return LibAppStorage.CurrencyStorage().supportsEther;\n        else return LibAppStorage.CurrencyStorage().supportsCurrency[currency];\n    }\n\n    /// @dev check whether offer is openning for sale\n    /// @param offerId id of the offer\n    /// @return true or false\n    function _openning(uint256 offerId) private view returns (bool) {\n        return LibAppStorage.DirectSaleStorage().openningIds.contains(offerId);\n    }\n}\n"
    },
    "libraries/LibAppStorage.sol": {
      "content": "//SPDX-License-Identifier: Unlicense\npragma solidity 0.8.10;\n\nimport \"hardhat-deploy/solc_0.8/diamond/UsingDiamondOwner.sol\";\nimport \"@openzeppelin/contracts/utils/structs/EnumerableSet.sol\";\nbytes32 constant DIAMOND_STORAGE_POSITION = keccak256(\n    \"diamond.standard.diamond.storage\"\n);\nbytes32 constant DIRECT_SALE_V2_STORAGE_POSITION = keccak256(\n    \"diamond.standard.storage.direct.sale.v2\"\n);\nbytes32 constant CURRENCY_POSITION = keccak256(\n    \"diamond.standard.storage.underlying.currency\"\n);\n\nbytes32 constant WITHDRAWAL_POSITION = keccak256(\n    \"diamond.standard.storage.withdrawal\"\n);\n\nuint256 constant ENTERED = 2;\nuint256 constant NOT_ENTERED = 1;\nstruct FacetAddressAndPosition {\n    address facetAddress;\n    uint96 functionSelectorPosition;\n}\nstruct FacetFunctionSelectors {\n    bytes4[] functionSelectors;\n    uint256 facetAddressPosition;\n}\nstruct DiamondStorage {\n    mapping(bytes4 => FacetAddressAndPosition) selectorToFacetAndPosition;\n    mapping(address => FacetFunctionSelectors) facetFunctionSelectors;\n    address[] facetAddresses;\n    mapping(bytes4 => bool) supportedInterfaces;\n    address contractOwner;\n}\nstruct CurrencyData {\n    bool supportsEther;\n    mapping(address => bool) supportsCurrency;\n}\n\nstruct WithdrawalData {\n    mapping(address => uint256) ethBalances;\n    mapping(address => mapping(address => uint256)) erc20Balances;\n}\n\nstruct SaleOffer {\n    address hostContract;\n    uint256 tokenId;\n    address seller;\n    uint256 price;\n    address currency;\n    uint16 feePercent;\n    bool closed;\n}\n\nstruct DirectSaleData {\n    uint256 nonce;\n    uint16 listingFee;\n    bool supportsEther; // deprecated, use CurrencyFacet instead\n    mapping(address => bool) supportsTokens; // deprecated use CurrencyFacet instead\n    mapping(uint256 => SaleOffer) offers;\n    EnumerableSet.UintSet openningIds;\n    uint256 entrant;\n}\n\nlibrary LibDiamondStorage {\n    function diamondStorage() internal pure returns (DiamondStorage storage s) {\n        bytes32 position = DIAMOND_STORAGE_POSITION;\n        assembly {\n            s.slot := position\n        }\n    }\n}\n\nlibrary LibAppStorage {\n    function diamondStorage() internal pure returns (DiamondStorage storage) {\n        return LibDiamondStorage.diamondStorage();\n    }\n\n    function CurrencyStorage() internal pure returns (CurrencyData storage s) {\n        bytes32 position = CURRENCY_POSITION;\n        assembly {\n            s.slot := position\n        }\n    }\n\n    function WithdrawalStorage()\n        internal\n        pure\n        returns (WithdrawalData storage s)\n    {\n        bytes32 position = WITHDRAWAL_POSITION;\n        assembly {\n            s.slot := position\n        }\n    }\n\n    function DirectSaleStorage()\n        internal\n        pure\n        returns (DirectSaleData storage s)\n    {\n        bytes32 position = DIRECT_SALE_V2_STORAGE_POSITION;\n        assembly {\n            s.slot := position\n        }\n    }\n}\n\ncontract UsingAppStorage is UsingDiamondOwner {\n    function contractOwner() internal view returns (address) {\n        return LibAppStorage.diamondStorage().contractOwner;\n    }\n}\n"
    },
    "@openzeppelin/contracts/token/ERC20/utils/SafeERC20.sol": {
      "content": "// SPDX-License-Identifier: MIT\n// OpenZeppelin Contracts v4.4.1 (token/ERC20/utils/SafeERC20.sol)\n\npragma solidity ^0.8.0;\n\nimport \"../IERC20.sol\";\nimport \"../../../utils/Address.sol\";\n\n/**\n * @title SafeERC20\n * @dev Wrappers around ERC20 operations that throw on failure (when the token\n * contract returns false). Tokens that return no value (and instead revert or\n * throw on failure) are also supported, non-reverting calls are assumed to be\n * successful.\n * To use this library you can add a `using SafeERC20 for IERC20;` statement to your contract,\n * which allows you to call the safe operations as `token.safeTransfer(...)`, etc.\n */\nlibrary SafeERC20 {\n    using Address for address;\n\n    function safeTransfer(\n        IERC20 token,\n        address to,\n        uint256 value\n    ) internal {\n        _callOptionalReturn(token, abi.encodeWithSelector(token.transfer.selector, to, value));\n    }\n\n    function safeTransferFrom(\n        IERC20 token,\n        address from,\n        address to,\n        uint256 value\n    ) internal {\n        _callOptionalReturn(token, abi.encodeWithSelector(token.transferFrom.selector, from, to, value));\n    }\n\n    /**\n     * @dev Deprecated. This function has issues similar to the ones found in\n     * {IERC20-approve}, and its usage is discouraged.\n     *\n     * Whenever possible, use {safeIncreaseAllowance} and\n     * {safeDecreaseAllowance} instead.\n     */\n    function safeApprove(\n        IERC20 token,\n        address spender,\n        uint256 value\n    ) internal {\n        // safeApprove should only be called when setting an initial allowance,\n        // or when resetting it to zero. To increase and decrease it, use\n        // 'safeIncreaseAllowance' and 'safeDecreaseAllowance'\n        require(\n            (value == 0) || (token.allowance(address(this), spender) == 0),\n            \"SafeERC20: approve from non-zero to non-zero allowance\"\n        );\n        _callOptionalReturn(token, abi.encodeWithSelector(token.approve.selector, spender, value));\n    }\n\n    function safeIncreaseAllowance(\n        IERC20 token,\n        address spender,\n        uint256 value\n    ) internal {\n        uint256 newAllowance = token.allowance(address(this), spender) + value;\n        _callOptionalReturn(token, abi.encodeWithSelector(token.approve.selector, spender, newAllowance));\n    }\n\n    function safeDecreaseAllowance(\n        IERC20 token,\n        address spender,\n        uint256 value\n    ) internal {\n        unchecked {\n            uint256 oldAllowance = token.allowance(address(this), spender);\n            require(oldAllowance >= value, \"SafeERC20: decreased allowance below zero\");\n            uint256 newAllowance = oldAllowance - value;\n            _callOptionalReturn(token, abi.encodeWithSelector(token.approve.selector, spender, newAllowance));\n        }\n    }\n\n    /**\n     * @dev Imitates a Solidity high-level call (i.e. a regular function call to a contract), relaxing the requirement\n     * on the return value: the return value is optional (but if data is returned, it must not be false).\n     * @param token The token targeted by the call.\n     * @param data The call data (encoded using abi.encode or one of its variants).\n     */\n    function _callOptionalReturn(IERC20 token, bytes memory data) private {\n        // We need to perform a low level call here, to bypass Solidity's return data size checking mechanism, since\n        // we're implementing it ourselves. We use {Address.functionCall} to perform this call, which verifies that\n        // the target address contains contract code and also asserts for success in the low-level call.\n\n        bytes memory returndata = address(token).functionCall(data, \"SafeERC20: low-level call failed\");\n        if (returndata.length > 0) {\n            // Return data is optional\n            require(abi.decode(returndata, (bool)), \"SafeERC20: ERC20 operation did not succeed\");\n        }\n    }\n}\n"
    },
    "@openzeppelin/contracts/utils/math/SafeMath.sol": {
      "content": "// SPDX-License-Identifier: MIT\n// OpenZeppelin Contracts v4.4.1 (utils/math/SafeMath.sol)\n\npragma solidity ^0.8.0;\n\n// CAUTION\n// This version of SafeMath should only be used with Solidity 0.8 or later,\n// because it relies on the compiler's built in overflow checks.\n\n/**\n * @dev Wrappers over Solidity's arithmetic operations.\n *\n * NOTE: `SafeMath` is generally not needed starting with Solidity 0.8, since the compiler\n * now has built in overflow checking.\n */\nlibrary SafeMath {\n    /**\n     * @dev Returns the addition of two unsigned integers, with an overflow flag.\n     *\n     * _Available since v3.4._\n     */\n    function tryAdd(uint256 a, uint256 b) internal pure returns (bool, uint256) {\n        unchecked {\n            uint256 c = a + b;\n            if (c < a) return (false, 0);\n            return (true, c);\n        }\n    }\n\n    /**\n     * @dev Returns the substraction of two unsigned integers, with an overflow flag.\n     *\n     * _Available since v3.4._\n     */\n    function trySub(uint256 a, uint256 b) internal pure returns (bool, uint256) {\n        unchecked {\n            if (b > a) return (false, 0);\n            return (true, a - b);\n        }\n    }\n\n    /**\n     * @dev Returns the multiplication of two unsigned integers, with an overflow flag.\n     *\n     * _Available since v3.4._\n     */\n    function tryMul(uint256 a, uint256 b) internal pure returns (bool, uint256) {\n        unchecked {\n            // Gas optimization: this is cheaper than requiring 'a' not being zero, but the\n            // benefit is lost if 'b' is also tested.\n            // See: https://github.com/OpenZeppelin/openzeppelin-contracts/pull/522\n            if (a == 0) return (true, 0);\n            uint256 c = a * b;\n            if (c / a != b) return (false, 0);\n            return (true, c);\n        }\n    }\n\n    /**\n     * @dev Returns the division of two unsigned integers, with a division by zero flag.\n     *\n     * _Available since v3.4._\n     */\n    function tryDiv(uint256 a, uint256 b) internal pure returns (bool, uint256) {\n        unchecked {\n            if (b == 0) return (false, 0);\n            return (true, a / b);\n        }\n    }\n\n    /**\n     * @dev Returns the remainder of dividing two unsigned integers, with a division by zero flag.\n     *\n     * _Available since v3.4._\n     */\n    function tryMod(uint256 a, uint256 b) internal pure returns (bool, uint256) {\n        unchecked {\n            if (b == 0) return (false, 0);\n            return (true, a % b);\n        }\n    }\n\n    /**\n     * @dev Returns the addition of two unsigned integers, reverting on\n     * overflow.\n     *\n     * Counterpart to Solidity's `+` operator.\n     *\n     * Requirements:\n     *\n     * - Addition cannot overflow.\n     */\n    function add(uint256 a, uint256 b) internal pure returns (uint256) {\n        return a + b;\n    }\n\n    /**\n     * @dev Returns the subtraction of two unsigned integers, reverting on\n     * overflow (when the result is negative).\n     *\n     * Counterpart to Solidity's `-` operator.\n     *\n     * Requirements:\n     *\n     * - Subtraction cannot overflow.\n     */\n    function sub(uint256 a, uint256 b) internal pure returns (uint256) {\n        return a - b;\n    }\n\n    /**\n     * @dev Returns the multiplication of two unsigned integers, reverting on\n     * overflow.\n     *\n     * Counterpart to Solidity's `*` operator.\n     *\n     * Requirements:\n     *\n     * - Multiplication cannot overflow.\n     */\n    function mul(uint256 a, uint256 b) internal pure returns (uint256) {\n        return a * b;\n    }\n\n    /**\n     * @dev Returns the integer division of two unsigned integers, reverting on\n     * division by zero. The result is rounded towards zero.\n     *\n     * Counterpart to Solidity's `/` operator.\n     *\n     * Requirements:\n     *\n     * - The divisor cannot be zero.\n     */\n    function div(uint256 a, uint256 b) internal pure returns (uint256) {\n        return a / b;\n    }\n\n    /**\n     * @dev Returns the remainder of dividing two unsigned integers. (unsigned integer modulo),\n     * reverting when dividing by zero.\n     *\n     * Counterpart to Solidity's `%` operator. This function uses a `revert`\n     * opcode (which leaves remaining gas untouched) while Solidity uses an\n     * invalid opcode to revert (consuming all remaining gas).\n     *\n     * Requirements:\n     *\n     * - The divisor cannot be zero.\n     */\n    function mod(uint256 a, uint256 b) internal pure returns (uint256) {\n        return a % b;\n    }\n\n    /**\n     * @dev Returns the subtraction of two unsigned integers, reverting with custom message on\n     * overflow (when the result is negative).\n     *\n     * CAUTION: This function is deprecated because it requires allocating memory for the error\n     * message unnecessarily. For custom revert reasons use {trySub}.\n     *\n     * Counterpart to Solidity's `-` operator.\n     *\n     * Requirements:\n     *\n     * - Subtraction cannot overflow.\n     */\n    function sub(\n        uint256 a,\n        uint256 b,\n        string memory errorMessage\n    ) internal pure returns (uint256) {\n        unchecked {\n            require(b <= a, errorMessage);\n            return a - b;\n        }\n    }\n\n    /**\n     * @dev Returns the integer division of two unsigned integers, reverting with custom message on\n     * division by zero. The result is rounded towards zero.\n     *\n     * Counterpart to Solidity's `/` operator. Note: this function uses a\n     * `revert` opcode (which leaves remaining gas untouched) while Solidity\n     * uses an invalid opcode to revert (consuming all remaining gas).\n     *\n     * Requirements:\n     *\n     * - The divisor cannot be zero.\n     */\n    function div(\n        uint256 a,\n        uint256 b,\n        string memory errorMessage\n    ) internal pure returns (uint256) {\n        unchecked {\n            require(b > 0, errorMessage);\n            return a / b;\n        }\n    }\n\n    /**\n     * @dev Returns the remainder of dividing two unsigned integers. (unsigned integer modulo),\n     * reverting with custom message when dividing by zero.\n     *\n     * CAUTION: This function is deprecated because it requires allocating memory for the error\n     * message unnecessarily. For custom revert reasons use {tryMod}.\n     *\n     * Counterpart to Solidity's `%` operator. This function uses a `revert`\n     * opcode (which leaves remaining gas untouched) while Solidity uses an\n     * invalid opcode to revert (consuming all remaining gas).\n     *\n     * Requirements:\n     *\n     * - The divisor cannot be zero.\n     */\n    function mod(\n        uint256 a,\n        uint256 b,\n        string memory errorMessage\n    ) internal pure returns (uint256) {\n        unchecked {\n            require(b > 0, errorMessage);\n            return a % b;\n        }\n    }\n}\n"
    },
    "@openzeppelin/contracts/interfaces/IERC721.sol": {
      "content": "// SPDX-License-Identifier: MIT\n// OpenZeppelin Contracts v4.4.1 (interfaces/IERC721.sol)\n\npragma solidity ^0.8.0;\n\nimport \"../token/ERC721/IERC721.sol\";\n"
    },
    "@openzeppelin/contracts/interfaces/IERC721Receiver.sol": {
      "content": "// SPDX-License-Identifier: MIT\n// OpenZeppelin Contracts v4.4.1 (interfaces/IERC721Receiver.sol)\n\npragma solidity ^0.8.0;\n\nimport \"../token/ERC721/IERC721Receiver.sol\";\n"
    },
    "@openzeppelin/contracts/utils/structs/EnumerableSet.sol": {
      "content": "// SPDX-License-Identifier: MIT\n// OpenZeppelin Contracts v4.4.1 (utils/structs/EnumerableSet.sol)\n\npragma solidity ^0.8.0;\n\n/**\n * @dev Library for managing\n * https://en.wikipedia.org/wiki/Set_(abstract_data_type)[sets] of primitive\n * types.\n *\n * Sets have the following properties:\n *\n * - Elements are added, removed, and checked for existence in constant time\n * (O(1)).\n * - Elements are enumerated in O(n). No guarantees are made on the ordering.\n *\n * ```\n * contract Example {\n *     // Add the library methods\n *     using EnumerableSet for EnumerableSet.AddressSet;\n *\n *     // Declare a set state variable\n *     EnumerableSet.AddressSet private mySet;\n * }\n * ```\n *\n * As of v3.3.0, sets of type `bytes32` (`Bytes32Set`), `address` (`AddressSet`)\n * and `uint256` (`UintSet`) are supported.\n */\nlibrary EnumerableSet {\n    // To implement this library for multiple types with as little code\n    // repetition as possible, we write it in terms of a generic Set type with\n    // bytes32 values.\n    // The Set implementation uses private functions, and user-facing\n    // implementations (such as AddressSet) are just wrappers around the\n    // underlying Set.\n    // This means that we can only create new EnumerableSets for types that fit\n    // in bytes32.\n\n    struct Set {\n        // Storage of set values\n        bytes32[] _values;\n        // Position of the value in the `values` array, plus 1 because index 0\n        // means a value is not in the set.\n        mapping(bytes32 => uint256) _indexes;\n    }\n\n    /**\n     * @dev Add a value to a set. O(1).\n     *\n     * Returns true if the value was added to the set, that is if it was not\n     * already present.\n     */\n    function _add(Set storage set, bytes32 value) private returns (bool) {\n        if (!_contains(set, value)) {\n            set._values.push(value);\n            // The value is stored at length-1, but we add 1 to all indexes\n            // and use 0 as a sentinel value\n            set._indexes[value] = set._values.length;\n            return true;\n        } else {\n            return false;\n        }\n    }\n\n    /**\n     * @dev Removes a value from a set. O(1).\n     *\n     * Returns true if the value was removed from the set, that is if it was\n     * present.\n     */\n    function _remove(Set storage set, bytes32 value) private returns (bool) {\n        // We read and store the value's index to prevent multiple reads from the same storage slot\n        uint256 valueIndex = set._indexes[value];\n\n        if (valueIndex != 0) {\n            // Equivalent to contains(set, value)\n            // To delete an element from the _values array in O(1), we swap the element to delete with the last one in\n            // the array, and then remove the last element (sometimes called as 'swap and pop').\n            // This modifies the order of the array, as noted in {at}.\n\n            uint256 toDeleteIndex = valueIndex - 1;\n            uint256 lastIndex = set._values.length - 1;\n\n            if (lastIndex != toDeleteIndex) {\n                bytes32 lastvalue = set._values[lastIndex];\n\n                // Move the last value to the index where the value to delete is\n                set._values[toDeleteIndex] = lastvalue;\n                // Update the index for the moved value\n                set._indexes[lastvalue] = valueIndex; // Replace lastvalue's index to valueIndex\n            }\n\n            // Delete the slot where the moved value was stored\n            set._values.pop();\n\n            // Delete the index for the deleted slot\n            delete set._indexes[value];\n\n            return true;\n        } else {\n            return false;\n        }\n    }\n\n    /**\n     * @dev Returns true if the value is in the set. O(1).\n     */\n    function _contains(Set storage set, bytes32 value) private view returns (bool) {\n        return set._indexes[value] != 0;\n    }\n\n    /**\n     * @dev Returns the number of values on the set. O(1).\n     */\n    function _length(Set storage set) private view returns (uint256) {\n        return set._values.length;\n    }\n\n    /**\n     * @dev Returns the value stored at position `index` in the set. O(1).\n     *\n     * Note that there are no guarantees on the ordering of values inside the\n     * array, and it may change when more values are added or removed.\n     *\n     * Requirements:\n     *\n     * - `index` must be strictly less than {length}.\n     */\n    function _at(Set storage set, uint256 index) private view returns (bytes32) {\n        return set._values[index];\n    }\n\n    /**\n     * @dev Return the entire set in an array\n     *\n     * WARNING: This operation will copy the entire storage to memory, which can be quite expensive. This is designed\n     * to mostly be used by view accessors that are queried without any gas fees. Developers should keep in mind that\n     * this function has an unbounded cost, and using it as part of a state-changing function may render the function\n     * uncallable if the set grows to a point where copying to memory consumes too much gas to fit in a block.\n     */\n    function _values(Set storage set) private view returns (bytes32[] memory) {\n        return set._values;\n    }\n\n    // Bytes32Set\n\n    struct Bytes32Set {\n        Set _inner;\n    }\n\n    /**\n     * @dev Add a value to a set. O(1).\n     *\n     * Returns true if the value was added to the set, that is if it was not\n     * already present.\n     */\n    function add(Bytes32Set storage set, bytes32 value) internal returns (bool) {\n        return _add(set._inner, value);\n    }\n\n    /**\n     * @dev Removes a value from a set. O(1).\n     *\n     * Returns true if the value was removed from the set, that is if it was\n     * present.\n     */\n    function remove(Bytes32Set storage set, bytes32 value) internal returns (bool) {\n        return _remove(set._inner, value);\n    }\n\n    /**\n     * @dev Returns true if the value is in the set. O(1).\n     */\n    function contains(Bytes32Set storage set, bytes32 value) internal view returns (bool) {\n        return _contains(set._inner, value);\n    }\n\n    /**\n     * @dev Returns the number of values in the set. O(1).\n     */\n    function length(Bytes32Set storage set) internal view returns (uint256) {\n        return _length(set._inner);\n    }\n\n    /**\n     * @dev Returns the value stored at position `index` in the set. O(1).\n     *\n     * Note that there are no guarantees on the ordering of values inside the\n     * array, and it may change when more values are added or removed.\n     *\n     * Requirements:\n     *\n     * - `index` must be strictly less than {length}.\n     */\n    function at(Bytes32Set storage set, uint256 index) internal view returns (bytes32) {\n        return _at(set._inner, index);\n    }\n\n    /**\n     * @dev Return the entire set in an array\n     *\n     * WARNING: This operation will copy the entire storage to memory, which can be quite expensive. This is designed\n     * to mostly be used by view accessors that are queried without any gas fees. Developers should keep in mind that\n     * this function has an unbounded cost, and using it as part of a state-changing function may render the function\n     * uncallable if the set grows to a point where copying to memory consumes too much gas to fit in a block.\n     */\n    function values(Bytes32Set storage set) internal view returns (bytes32[] memory) {\n        return _values(set._inner);\n    }\n\n    // AddressSet\n\n    struct AddressSet {\n        Set _inner;\n    }\n\n    /**\n     * @dev Add a value to a set. O(1).\n     *\n     * Returns true if the value was added to the set, that is if it was not\n     * already present.\n     */\n    function add(AddressSet storage set, address value) internal returns (bool) {\n        return _add(set._inner, bytes32(uint256(uint160(value))));\n    }\n\n    /**\n     * @dev Removes a value from a set. O(1).\n     *\n     * Returns true if the value was removed from the set, that is if it was\n     * present.\n     */\n    function remove(AddressSet storage set, address value) internal returns (bool) {\n        return _remove(set._inner, bytes32(uint256(uint160(value))));\n    }\n\n    /**\n     * @dev Returns true if the value is in the set. O(1).\n     */\n    function contains(AddressSet storage set, address value) internal view returns (bool) {\n        return _contains(set._inner, bytes32(uint256(uint160(value))));\n    }\n\n    /**\n     * @dev Returns the number of values in the set. O(1).\n     */\n    function length(AddressSet storage set) internal view returns (uint256) {\n        return _length(set._inner);\n    }\n\n    /**\n     * @dev Returns the value stored at position `index` in the set. O(1).\n     *\n     * Note that there are no guarantees on the ordering of values inside the\n     * array, and it may change when more values are added or removed.\n     *\n     * Requirements:\n     *\n     * - `index` must be strictly less than {length}.\n     */\n    function at(AddressSet storage set, uint256 index) internal view returns (address) {\n        return address(uint160(uint256(_at(set._inner, index))));\n    }\n\n    /**\n     * @dev Return the entire set in an array\n     *\n     * WARNING: This operation will copy the entire storage to memory, which can be quite expensive. This is designed\n     * to mostly be used by view accessors that are queried without any gas fees. Developers should keep in mind that\n     * this function has an unbounded cost, and using it as part of a state-changing function may render the function\n     * uncallable if the set grows to a point where copying to memory consumes too much gas to fit in a block.\n     */\n    function values(AddressSet storage set) internal view returns (address[] memory) {\n        bytes32[] memory store = _values(set._inner);\n        address[] memory result;\n\n        assembly {\n            result := store\n        }\n\n        return result;\n    }\n\n    // UintSet\n\n    struct UintSet {\n        Set _inner;\n    }\n\n    /**\n     * @dev Add a value to a set. O(1).\n     *\n     * Returns true if the value was added to the set, that is if it was not\n     * already present.\n     */\n    function add(UintSet storage set, uint256 value) internal returns (bool) {\n        return _add(set._inner, bytes32(value));\n    }\n\n    /**\n     * @dev Removes a value from a set. O(1).\n     *\n     * Returns true if the value was removed from the set, that is if it was\n     * present.\n     */\n    function remove(UintSet storage set, uint256 value) internal returns (bool) {\n        return _remove(set._inner, bytes32(value));\n    }\n\n    /**\n     * @dev Returns true if the value is in the set. O(1).\n     */\n    function contains(UintSet storage set, uint256 value) internal view returns (bool) {\n        return _contains(set._inner, bytes32(value));\n    }\n\n    /**\n     * @dev Returns the number of values on the set. O(1).\n     */\n    function length(UintSet storage set) internal view returns (uint256) {\n        return _length(set._inner);\n    }\n\n    /**\n     * @dev Returns the value stored at position `index` in the set. O(1).\n     *\n     * Note that there are no guarantees on the ordering of values inside the\n     * array, and it may change when more values are added or removed.\n     *\n     * Requirements:\n     *\n     * - `index` must be strictly less than {length}.\n     */\n    function at(UintSet storage set, uint256 index) internal view returns (uint256) {\n        return uint256(_at(set._inner, index));\n    }\n\n    /**\n     * @dev Return the entire set in an array\n     *\n     * WARNING: This operation will copy the entire storage to memory, which can be quite expensive. This is designed\n     * to mostly be used by view accessors that are queried without any gas fees. Developers should keep in mind that\n     * this function has an unbounded cost, and using it as part of a state-changing function may render the function\n     * uncallable if the set grows to a point where copying to memory consumes too much gas to fit in a block.\n     */\n    function values(UintSet storage set) internal view returns (uint256[] memory) {\n        bytes32[] memory store = _values(set._inner);\n        uint256[] memory result;\n\n        assembly {\n            result := store\n        }\n\n        return result;\n    }\n}\n"
    },
    "hardhat-deploy/solc_0.8/diamond/UsingDiamondOwner.sol": {
      "content": "// SPDX-License-Identifier: MIT\npragma solidity ^0.8.0;\n\nimport \"./libraries/LibDiamond.sol\";\n\ncontract UsingDiamondOwner {\n    modifier onlyOwner() {\n        LibDiamond.DiamondStorage storage ds = LibDiamond.diamondStorage();\n        require(msg.sender == ds.contractOwner, \"Only owner is allowed to perform this action\");\n        _;\n    }\n}\n"
    },
    "hardhat-deploy/solc_0.8/diamond/libraries/LibDiamond.sol": {
      "content": "// SPDX-License-Identifier: MIT\npragma solidity ^0.8.0;\n\n/******************************************************************************\\\n* Author: Nick Mudge <nick@perfectabstractions.com> (https://twitter.com/mudgen)\n* EIP-2535 Diamonds: https://eips.ethereum.org/EIPS/eip-2535\n/******************************************************************************/\nimport { IDiamondCut } from \"../interfaces/IDiamondCut.sol\";\n\nlibrary LibDiamond {\n    bytes32 constant DIAMOND_STORAGE_POSITION = keccak256(\"diamond.standard.diamond.storage\");\n\n    struct FacetAddressAndPosition {\n        address facetAddress;\n        uint96 functionSelectorPosition; // position in facetFunctionSelectors.functionSelectors array\n    }\n\n    struct FacetFunctionSelectors {\n        bytes4[] functionSelectors;\n        uint256 facetAddressPosition; // position of facetAddress in facetAddresses array\n    }\n\n    struct DiamondStorage {\n        // maps function selector to the facet address and\n        // the position of the selector in the facetFunctionSelectors.selectors array\n        mapping(bytes4 => FacetAddressAndPosition) selectorToFacetAndPosition;\n        // maps facet addresses to function selectors\n        mapping(address => FacetFunctionSelectors) facetFunctionSelectors;\n        // facet addresses\n        address[] facetAddresses;\n        // Used to query if a contract implements an interface.\n        // Used to implement ERC-165.\n        mapping(bytes4 => bool) supportedInterfaces;\n        // owner of the contract\n        address contractOwner;\n    }\n\n    function diamondStorage() internal pure returns (DiamondStorage storage ds) {\n        bytes32 position = DIAMOND_STORAGE_POSITION;\n        assembly {\n            ds.slot := position\n        }\n    }\n\n    event OwnershipTransferred(address indexed previousOwner, address indexed newOwner);\n\n    function setContractOwner(address _newOwner) internal {\n        DiamondStorage storage ds = diamondStorage();\n        address previousOwner = ds.contractOwner;\n        ds.contractOwner = _newOwner;\n        emit OwnershipTransferred(previousOwner, _newOwner);\n    }\n\n    function contractOwner() internal view returns (address contractOwner_) {\n        contractOwner_ = diamondStorage().contractOwner;\n    }\n\n    function enforceIsContractOwner() internal view {\n        require(msg.sender == diamondStorage().contractOwner, \"LibDiamond: Must be contract owner\");\n    }\n\n    event DiamondCut(IDiamondCut.FacetCut[] _diamondCut, address _init, bytes _calldata);\n\n    // Internal function version of diamondCut\n    function diamondCut(\n        IDiamondCut.FacetCut[] memory _diamondCut,\n        address _init,\n        bytes memory _calldata\n    ) internal {\n        for (uint256 facetIndex; facetIndex < _diamondCut.length; facetIndex++) {\n            IDiamondCut.FacetCutAction action = _diamondCut[facetIndex].action;\n            if (action == IDiamondCut.FacetCutAction.Add) {\n                addFunctions(_diamondCut[facetIndex].facetAddress, _diamondCut[facetIndex].functionSelectors);\n            } else if (action == IDiamondCut.FacetCutAction.Replace) {\n                replaceFunctions(_diamondCut[facetIndex].facetAddress, _diamondCut[facetIndex].functionSelectors);\n            } else if (action == IDiamondCut.FacetCutAction.Remove) {\n                removeFunctions(_diamondCut[facetIndex].facetAddress, _diamondCut[facetIndex].functionSelectors);\n            } else {\n                revert(\"LibDiamondCut: Incorrect FacetCutAction\");\n            }\n        }\n        emit DiamondCut(_diamondCut, _init, _calldata);\n        initializeDiamondCut(_init, _calldata);\n    }\n\n    function addFunctions(address _facetAddress, bytes4[] memory _functionSelectors) internal {\n        require(_functionSelectors.length > 0, \"LibDiamondCut: No selectors in facet to cut\");\n        DiamondStorage storage ds = diamondStorage();        \n        require(_facetAddress != address(0), \"LibDiamondCut: Add facet can't be address(0)\");\n        uint96 selectorPosition = uint96(ds.facetFunctionSelectors[_facetAddress].functionSelectors.length);\n        // add new facet address if it does not exist\n        if (selectorPosition == 0) {\n            addFacet(ds, _facetAddress);            \n        }\n        for (uint256 selectorIndex; selectorIndex < _functionSelectors.length; selectorIndex++) {\n            bytes4 selector = _functionSelectors[selectorIndex];\n            address oldFacetAddress = ds.selectorToFacetAndPosition[selector].facetAddress;\n            require(oldFacetAddress == address(0), \"LibDiamondCut: Can't add function that already exists\");\n            addFunction(ds, selector, selectorPosition, _facetAddress);\n            selectorPosition++;\n        }\n    }\n\n    function replaceFunctions(address _facetAddress, bytes4[] memory _functionSelectors) internal {\n        require(_functionSelectors.length > 0, \"LibDiamondCut: No selectors in facet to cut\");\n        DiamondStorage storage ds = diamondStorage();\n        require(_facetAddress != address(0), \"LibDiamondCut: Add facet can't be address(0)\");\n        uint96 selectorPosition = uint96(ds.facetFunctionSelectors[_facetAddress].functionSelectors.length);\n        // add new facet address if it does not exist\n        if (selectorPosition == 0) {\n            addFacet(ds, _facetAddress);\n        }\n        for (uint256 selectorIndex; selectorIndex < _functionSelectors.length; selectorIndex++) {\n            bytes4 selector = _functionSelectors[selectorIndex];\n            address oldFacetAddress = ds.selectorToFacetAndPosition[selector].facetAddress;\n            require(oldFacetAddress != _facetAddress, \"LibDiamondCut: Can't replace function with same function\");\n            removeFunction(ds, oldFacetAddress, selector);\n            addFunction(ds, selector, selectorPosition, _facetAddress);\n            selectorPosition++;\n        }\n    }\n\n    function removeFunctions(address _facetAddress, bytes4[] memory _functionSelectors) internal {\n        require(_functionSelectors.length > 0, \"LibDiamondCut: No selectors in facet to cut\");\n        DiamondStorage storage ds = diamondStorage();\n        // if function does not exist then do nothing and return\n        require(_facetAddress == address(0), \"LibDiamondCut: Remove facet address must be address(0)\");\n        for (uint256 selectorIndex; selectorIndex < _functionSelectors.length; selectorIndex++) {\n            bytes4 selector = _functionSelectors[selectorIndex];\n            address oldFacetAddress = ds.selectorToFacetAndPosition[selector].facetAddress;\n            removeFunction(ds, oldFacetAddress, selector);\n        }\n    }\n\n    function addFacet(DiamondStorage storage ds, address _facetAddress) internal {\n        enforceHasContractCode(_facetAddress, \"LibDiamondCut: New facet has no code\");\n        ds.facetFunctionSelectors[_facetAddress].facetAddressPosition = ds.facetAddresses.length;\n        ds.facetAddresses.push(_facetAddress);\n    }    \n\n\n    function addFunction(DiamondStorage storage ds, bytes4 _selector, uint96 _selectorPosition, address _facetAddress) internal {\n        ds.selectorToFacetAndPosition[_selector].functionSelectorPosition = _selectorPosition;\n        ds.facetFunctionSelectors[_facetAddress].functionSelectors.push(_selector);\n        ds.selectorToFacetAndPosition[_selector].facetAddress = _facetAddress;\n    }\n\n    function removeFunction(DiamondStorage storage ds, address _facetAddress, bytes4 _selector) internal {        \n        require(_facetAddress != address(0), \"LibDiamondCut: Can't remove function that doesn't exist\");\n        // an immutable function is a function defined directly in a diamond\n        require(_facetAddress != address(this), \"LibDiamondCut: Can't remove immutable function\");\n        // replace selector with last selector, then delete last selector\n        uint256 selectorPosition = ds.selectorToFacetAndPosition[_selector].functionSelectorPosition;\n        uint256 lastSelectorPosition = ds.facetFunctionSelectors[_facetAddress].functionSelectors.length - 1;\n        // if not the same then replace _selector with lastSelector\n        if (selectorPosition != lastSelectorPosition) {\n            bytes4 lastSelector = ds.facetFunctionSelectors[_facetAddress].functionSelectors[lastSelectorPosition];\n            ds.facetFunctionSelectors[_facetAddress].functionSelectors[selectorPosition] = lastSelector;\n            ds.selectorToFacetAndPosition[lastSelector].functionSelectorPosition = uint96(selectorPosition);\n        }\n        // delete the last selector\n        ds.facetFunctionSelectors[_facetAddress].functionSelectors.pop();\n        delete ds.selectorToFacetAndPosition[_selector];\n\n        // if no more selectors for facet address then delete the facet address\n        if (lastSelectorPosition == 0) {\n            // replace facet address with last facet address and delete last facet address\n            uint256 lastFacetAddressPosition = ds.facetAddresses.length - 1;\n            uint256 facetAddressPosition = ds.facetFunctionSelectors[_facetAddress].facetAddressPosition;\n            if (facetAddressPosition != lastFacetAddressPosition) {\n                address lastFacetAddress = ds.facetAddresses[lastFacetAddressPosition];\n                ds.facetAddresses[facetAddressPosition] = lastFacetAddress;\n                ds.facetFunctionSelectors[lastFacetAddress].facetAddressPosition = facetAddressPosition;\n            }\n            ds.facetAddresses.pop();\n            delete ds.facetFunctionSelectors[_facetAddress].facetAddressPosition;\n        }\n    }\n\n    function initializeDiamondCut(address _init, bytes memory _calldata) internal {\n        if (_init == address(0)) {\n            require(_calldata.length == 0, \"LibDiamondCut: _init is address(0) but_calldata is not empty\");\n        } else {\n            require(_calldata.length > 0, \"LibDiamondCut: _calldata is empty but _init is not address(0)\");\n            if (_init != address(this)) {\n                enforceHasContractCode(_init, \"LibDiamondCut: _init address has no code\");\n            }\n            (bool success, bytes memory error) = _init.delegatecall(_calldata);\n            if (!success) {\n                if (error.length > 0) {\n                    // bubble up the error\n                    revert(string(error));\n                } else {\n                    revert(\"LibDiamondCut: _init function reverted\");\n                }\n            }\n        }\n    }\n\n    function enforceHasContractCode(address _contract, string memory _errorMessage) internal view {\n        uint256 contractSize;\n        assembly {\n            contractSize := extcodesize(_contract)\n        }\n        require(contractSize > 0, _errorMessage);\n    }\n}\n"
    },
    "hardhat-deploy/solc_0.8/diamond/interfaces/IDiamondCut.sol": {
      "content": "// SPDX-License-Identifier: MIT\npragma solidity ^0.8.0;\n\n/******************************************************************************\\\n* Author: Nick Mudge <nick@perfectabstractions.com> (https://twitter.com/mudgen)\n* EIP-2535 Diamonds: https://eips.ethereum.org/EIPS/eip-2535\n/******************************************************************************/\n\ninterface IDiamondCut {\n    enum FacetCutAction {Add, Replace, Remove}\n    // Add=0, Replace=1, Remove=2\n\n    struct FacetCut {\n        address facetAddress;\n        FacetCutAction action;\n        bytes4[] functionSelectors;\n    }\n\n    /// @notice Add/replace/remove any number of functions and optionally execute\n    ///         a function with delegatecall\n    /// @param _diamondCut Contains the facet addresses and function selectors\n    /// @param _init The address of the contract or facet to execute _calldata\n    /// @param _calldata A function call, including function selector and arguments\n    ///                  _calldata is executed with delegatecall on _init\n    function diamondCut(\n        FacetCut[] calldata _diamondCut,\n        address _init,\n        bytes calldata _calldata\n    ) external;\n\n    event DiamondCut(FacetCut[] _diamondCut, address _init, bytes _calldata);\n}\n"
    },
    "@openzeppelin/contracts/token/ERC20/IERC20.sol": {
      "content": "// SPDX-License-Identifier: MIT\n// OpenZeppelin Contracts (last updated v4.5.0) (token/ERC20/IERC20.sol)\n\npragma solidity ^0.8.0;\n\n/**\n * @dev Interface of the ERC20 standard as defined in the EIP.\n */\ninterface IERC20 {\n    /**\n     * @dev Returns the amount of tokens in existence.\n     */\n    function totalSupply() external view returns (uint256);\n\n    /**\n     * @dev Returns the amount of tokens owned by `account`.\n     */\n    function balanceOf(address account) external view returns (uint256);\n\n    /**\n     * @dev Moves `amount` tokens from the caller's account to `to`.\n     *\n     * Returns a boolean value indicating whether the operation succeeded.\n     *\n     * Emits a {Transfer} event.\n     */\n    function transfer(address to, uint256 amount) external returns (bool);\n\n    /**\n     * @dev Returns the remaining number of tokens that `spender` will be\n     * allowed to spend on behalf of `owner` through {transferFrom}. This is\n     * zero by default.\n     *\n     * This value changes when {approve} or {transferFrom} are called.\n     */\n    function allowance(address owner, address spender) external view returns (uint256);\n\n    /**\n     * @dev Sets `amount` as the allowance of `spender` over the caller's tokens.\n     *\n     * Returns a boolean value indicating whether the operation succeeded.\n     *\n     * IMPORTANT: Beware that changing an allowance with this method brings the risk\n     * that someone may use both the old and the new allowance by unfortunate\n     * transaction ordering. One possible solution to mitigate this race\n     * condition is to first reduce the spender's allowance to 0 and set the\n     * desired value afterwards:\n     * https://github.com/ethereum/EIPs/issues/20#issuecomment-263524729\n     *\n     * Emits an {Approval} event.\n     */\n    function approve(address spender, uint256 amount) external returns (bool);\n\n    /**\n     * @dev Moves `amount` tokens from `from` to `to` using the\n     * allowance mechanism. `amount` is then deducted from the caller's\n     * allowance.\n     *\n     * Returns a boolean value indicating whether the operation succeeded.\n     *\n     * Emits a {Transfer} event.\n     */\n    function transferFrom(\n        address from,\n        address to,\n        uint256 amount\n    ) external returns (bool);\n\n    /**\n     * @dev Emitted when `value` tokens are moved from one account (`from`) to\n     * another (`to`).\n     *\n     * Note that `value` may be zero.\n     */\n    event Transfer(address indexed from, address indexed to, uint256 value);\n\n    /**\n     * @dev Emitted when the allowance of a `spender` for an `owner` is set by\n     * a call to {approve}. `value` is the new allowance.\n     */\n    event Approval(address indexed owner, address indexed spender, uint256 value);\n}\n"
    },
    "@openzeppelin/contracts/utils/Address.sol": {
      "content": "// SPDX-License-Identifier: MIT\n// OpenZeppelin Contracts (last updated v4.5.0) (utils/Address.sol)\n\npragma solidity ^0.8.1;\n\n/**\n * @dev Collection of functions related to the address type\n */\nlibrary Address {\n    /**\n     * @dev Returns true if `account` is a contract.\n     *\n     * [IMPORTANT]\n     * ====\n     * It is unsafe to assume that an address for which this function returns\n     * false is an externally-owned account (EOA) and not a contract.\n     *\n     * Among others, `isContract` will return false for the following\n     * types of addresses:\n     *\n     *  - an externally-owned account\n     *  - a contract in construction\n     *  - an address where a contract will be created\n     *  - an address where a contract lived, but was destroyed\n     * ====\n     *\n     * [IMPORTANT]\n     * ====\n     * You shouldn't rely on `isContract` to protect against flash loan attacks!\n     *\n     * Preventing calls from contracts is highly discouraged. It breaks composability, breaks support for smart wallets\n     * like Gnosis Safe, and does not provide security since it can be circumvented by calling from a contract\n     * constructor.\n     * ====\n     */\n    function isContract(address account) internal view returns (bool) {\n        // This method relies on extcodesize/address.code.length, which returns 0\n        // for contracts in construction, since the code is only stored at the end\n        // of the constructor execution.\n\n        return account.code.length > 0;\n    }\n\n    /**\n     * @dev Replacement for Solidity's `transfer`: sends `amount` wei to\n     * `recipient`, forwarding all available gas and reverting on errors.\n     *\n     * https://eips.ethereum.org/EIPS/eip-1884[EIP1884] increases the gas cost\n     * of certain opcodes, possibly making contracts go over the 2300 gas limit\n     * imposed by `transfer`, making them unable to receive funds via\n     * `transfer`. {sendValue} removes this limitation.\n     *\n     * https://diligence.consensys.net/posts/2019/09/stop-using-soliditys-transfer-now/[Learn more].\n     *\n     * IMPORTANT: because control is transferred to `recipient`, care must be\n     * taken to not create reentrancy vulnerabilities. Consider using\n     * {ReentrancyGuard} or the\n     * https://solidity.readthedocs.io/en/v0.5.11/security-considerations.html#use-the-checks-effects-interactions-pattern[checks-effects-interactions pattern].\n     */\n    function sendValue(address payable recipient, uint256 amount) internal {\n        require(address(this).balance >= amount, \"Address: insufficient balance\");\n\n        (bool success, ) = recipient.call{value: amount}(\"\");\n        require(success, \"Address: unable to send value, recipient may have reverted\");\n    }\n\n    /**\n     * @dev Performs a Solidity function call using a low level `call`. A\n     * plain `call` is an unsafe replacement for a function call: use this\n     * function instead.\n     *\n     * If `target` reverts with a revert reason, it is bubbled up by this\n     * function (like regular Solidity function calls).\n     *\n     * Returns the raw returned data. To convert to the expected return value,\n     * use https://solidity.readthedocs.io/en/latest/units-and-global-variables.html?highlight=abi.decode#abi-encoding-and-decoding-functions[`abi.decode`].\n     *\n     * Requirements:\n     *\n     * - `target` must be a contract.\n     * - calling `target` with `data` must not revert.\n     *\n     * _Available since v3.1._\n     */\n    function functionCall(address target, bytes memory data) internal returns (bytes memory) {\n        return functionCall(target, data, \"Address: low-level call failed\");\n    }\n\n    /**\n     * @dev Same as {xref-Address-functionCall-address-bytes-}[`functionCall`], but with\n     * `errorMessage` as a fallback revert reason when `target` reverts.\n     *\n     * _Available since v3.1._\n     */\n    function functionCall(\n        address target,\n        bytes memory data,\n        string memory errorMessage\n    ) internal returns (bytes memory) {\n        return functionCallWithValue(target, data, 0, errorMessage);\n    }\n\n    /**\n     * @dev Same as {xref-Address-functionCall-address-bytes-}[`functionCall`],\n     * but also transferring `value` wei to `target`.\n     *\n     * Requirements:\n     *\n     * - the calling contract must have an ETH balance of at least `value`.\n     * - the called Solidity function must be `payable`.\n     *\n     * _Available since v3.1._\n     */\n    function functionCallWithValue(\n        address target,\n        bytes memory data,\n        uint256 value\n    ) internal returns (bytes memory) {\n        return functionCallWithValue(target, data, value, \"Address: low-level call with value failed\");\n    }\n\n    /**\n     * @dev Same as {xref-Address-functionCallWithValue-address-bytes-uint256-}[`functionCallWithValue`], but\n     * with `errorMessage` as a fallback revert reason when `target` reverts.\n     *\n     * _Available since v3.1._\n     */\n    function functionCallWithValue(\n        address target,\n        bytes memory data,\n        uint256 value,\n        string memory errorMessage\n    ) internal returns (bytes memory) {\n        require(address(this).balance >= value, \"Address: insufficient balance for call\");\n        require(isContract(target), \"Address: call to non-contract\");\n\n        (bool success, bytes memory returndata) = target.call{value: value}(data);\n        return verifyCallResult(success, returndata, errorMessage);\n    }\n\n    /**\n     * @dev Same as {xref-Address-functionCall-address-bytes-}[`functionCall`],\n     * but performing a static call.\n     *\n     * _Available since v3.3._\n     */\n    function functionStaticCall(address target, bytes memory data) internal view returns (bytes memory) {\n        return functionStaticCall(target, data, \"Address: low-level static call failed\");\n    }\n\n    /**\n     * @dev Same as {xref-Address-functionCall-address-bytes-string-}[`functionCall`],\n     * but performing a static call.\n     *\n     * _Available since v3.3._\n     */\n    function functionStaticCall(\n        address target,\n        bytes memory data,\n        string memory errorMessage\n    ) internal view returns (bytes memory) {\n        require(isContract(target), \"Address: static call to non-contract\");\n\n        (bool success, bytes memory returndata) = target.staticcall(data);\n        return verifyCallResult(success, returndata, errorMessage);\n    }\n\n    /**\n     * @dev Same as {xref-Address-functionCall-address-bytes-}[`functionCall`],\n     * but performing a delegate call.\n     *\n     * _Available since v3.4._\n     */\n    function functionDelegateCall(address target, bytes memory data) internal returns (bytes memory) {\n        return functionDelegateCall(target, data, \"Address: low-level delegate call failed\");\n    }\n\n    /**\n     * @dev Same as {xref-Address-functionCall-address-bytes-string-}[`functionCall`],\n     * but performing a delegate call.\n     *\n     * _Available since v3.4._\n     */\n    function functionDelegateCall(\n        address target,\n        bytes memory data,\n        string memory errorMessage\n    ) internal returns (bytes memory) {\n        require(isContract(target), \"Address: delegate call to non-contract\");\n\n        (bool success, bytes memory returndata) = target.delegatecall(data);\n        return verifyCallResult(success, returndata, errorMessage);\n    }\n\n    /**\n     * @dev Tool to verifies that a low level call was successful, and revert if it wasn't, either by bubbling the\n     * revert reason using the provided one.\n     *\n     * _Available since v4.3._\n     */\n    function verifyCallResult(\n        bool success,\n        bytes memory returndata,\n        string memory errorMessage\n    ) internal pure returns (bytes memory) {\n        if (success) {\n            return returndata;\n        } else {\n            // Look for revert reason and bubble it up if present\n            if (returndata.length > 0) {\n                // The easiest way to bubble the revert reason is using memory via assembly\n\n                assembly {\n                    let returndata_size := mload(returndata)\n                    revert(add(32, returndata), returndata_size)\n                }\n            } else {\n                revert(errorMessage);\n            }\n        }\n    }\n}\n"
    },
    "@openzeppelin/contracts/token/ERC721/IERC721.sol": {
      "content": "// SPDX-License-Identifier: MIT\n// OpenZeppelin Contracts v4.4.1 (token/ERC721/IERC721.sol)\n\npragma solidity ^0.8.0;\n\nimport \"../../utils/introspection/IERC165.sol\";\n\n/**\n * @dev Required interface of an ERC721 compliant contract.\n */\ninterface IERC721 is IERC165 {\n    /**\n     * @dev Emitted when `tokenId` token is transferred from `from` to `to`.\n     */\n    event Transfer(address indexed from, address indexed to, uint256 indexed tokenId);\n\n    /**\n     * @dev Emitted when `owner` enables `approved` to manage the `tokenId` token.\n     */\n    event Approval(address indexed owner, address indexed approved, uint256 indexed tokenId);\n\n    /**\n     * @dev Emitted when `owner` enables or disables (`approved`) `operator` to manage all of its assets.\n     */\n    event ApprovalForAll(address indexed owner, address indexed operator, bool approved);\n\n    /**\n     * @dev Returns the number of tokens in ``owner``'s account.\n     */\n    function balanceOf(address owner) external view returns (uint256 balance);\n\n    /**\n     * @dev Returns the owner of the `tokenId` token.\n     *\n     * Requirements:\n     *\n     * - `tokenId` must exist.\n     */\n    function ownerOf(uint256 tokenId) external view returns (address owner);\n\n    /**\n     * @dev Safely transfers `tokenId` token from `from` to `to`, checking first that contract recipients\n     * are aware of the ERC721 protocol to prevent tokens from being forever locked.\n     *\n     * Requirements:\n     *\n     * - `from` cannot be the zero address.\n     * - `to` cannot be the zero address.\n     * - `tokenId` token must exist and be owned by `from`.\n     * - If the caller is not `from`, it must be have been allowed to move this token by either {approve} or {setApprovalForAll}.\n     * - If `to` refers to a smart contract, it must implement {IERC721Receiver-onERC721Received}, which is called upon a safe transfer.\n     *\n     * Emits a {Transfer} event.\n     */\n    function safeTransferFrom(\n        address from,\n        address to,\n        uint256 tokenId\n    ) external;\n\n    /**\n     * @dev Transfers `tokenId` token from `from` to `to`.\n     *\n     * WARNING: Usage of this method is discouraged, use {safeTransferFrom} whenever possible.\n     *\n     * Requirements:\n     *\n     * - `from` cannot be the zero address.\n     * - `to` cannot be the zero address.\n     * - `tokenId` token must be owned by `from`.\n     * - If the caller is not `from`, it must be approved to move this token by either {approve} or {setApprovalForAll}.\n     *\n     * Emits a {Transfer} event.\n     */\n    function transferFrom(\n        address from,\n        address to,\n        uint256 tokenId\n    ) external;\n\n    /**\n     * @dev Gives permission to `to` to transfer `tokenId` token to another account.\n     * The approval is cleared when the token is transferred.\n     *\n     * Only a single account can be approved at a time, so approving the zero address clears previous approvals.\n     *\n     * Requirements:\n     *\n     * - The caller must own the token or be an approved operator.\n     * - `tokenId` must exist.\n     *\n     * Emits an {Approval} event.\n     */\n    function approve(address to, uint256 tokenId) external;\n\n    /**\n     * @dev Returns the account approved for `tokenId` token.\n     *\n     * Requirements:\n     *\n     * - `tokenId` must exist.\n     */\n    function getApproved(uint256 tokenId) external view returns (address operator);\n\n    /**\n     * @dev Approve or remove `operator` as an operator for the caller.\n     * Operators can call {transferFrom} or {safeTransferFrom} for any token owned by the caller.\n     *\n     * Requirements:\n     *\n     * - The `operator` cannot be the caller.\n     *\n     * Emits an {ApprovalForAll} event.\n     */\n    function setApprovalForAll(address operator, bool _approved) external;\n\n    /**\n     * @dev Returns if the `operator` is allowed to manage all of the assets of `owner`.\n     *\n     * See {setApprovalForAll}\n     */\n    function isApprovedForAll(address owner, address operator) external view returns (bool);\n\n    /**\n     * @dev Safely transfers `tokenId` token from `from` to `to`.\n     *\n     * Requirements:\n     *\n     * - `from` cannot be the zero address.\n     * - `to` cannot be the zero address.\n     * - `tokenId` token must exist and be owned by `from`.\n     * - If the caller is not `from`, it must be approved to move this token by either {approve} or {setApprovalForAll}.\n     * - If `to` refers to a smart contract, it must implement {IERC721Receiver-onERC721Received}, which is called upon a safe transfer.\n     *\n     * Emits a {Transfer} event.\n     */\n    function safeTransferFrom(\n        address from,\n        address to,\n        uint256 tokenId,\n        bytes calldata data\n    ) external;\n}\n"
    },
    "@openzeppelin/contracts/utils/introspection/IERC165.sol": {
      "content": "// SPDX-License-Identifier: MIT\n// OpenZeppelin Contracts v4.4.1 (utils/introspection/IERC165.sol)\n\npragma solidity ^0.8.0;\n\n/**\n * @dev Interface of the ERC165 standard, as defined in the\n * https://eips.ethereum.org/EIPS/eip-165[EIP].\n *\n * Implementers can declare support of contract interfaces, which can then be\n * queried by others ({ERC165Checker}).\n *\n * For an implementation, see {ERC165}.\n */\ninterface IERC165 {\n    /**\n     * @dev Returns true if this contract implements the interface defined by\n     * `interfaceId`. See the corresponding\n     * https://eips.ethereum.org/EIPS/eip-165#how-interfaces-are-identified[EIP section]\n     * to learn more about how these ids are created.\n     *\n     * This function call must use less than 30 000 gas.\n     */\n    function supportsInterface(bytes4 interfaceId) external view returns (bool);\n}\n"
    },
    "@openzeppelin/contracts/token/ERC721/IERC721Receiver.sol": {
      "content": "// SPDX-License-Identifier: MIT\n// OpenZeppelin Contracts v4.4.1 (token/ERC721/IERC721Receiver.sol)\n\npragma solidity ^0.8.0;\n\n/**\n * @title ERC721 token receiver interface\n * @dev Interface for any contract that wants to support safeTransfers\n * from ERC721 asset contracts.\n */\ninterface IERC721Receiver {\n    /**\n     * @dev Whenever an {IERC721} `tokenId` token is transferred to this contract via {IERC721-safeTransferFrom}\n     * by `operator` from `from`, this function is called.\n     *\n     * It must return its Solidity selector to confirm the token transfer.\n     * If any other value is returned or the interface is not implemented by the recipient, the transfer will be reverted.\n     *\n     * The selector can be obtained in Solidity with `IERC721.onERC721Received.selector`.\n     */\n    function onERC721Received(\n        address operator,\n        address from,\n        uint256 tokenId,\n        bytes calldata data\n    ) external returns (bytes4);\n}\n"
    }
  },
  "settings": {
    "optimizer": {
      "enabled": false,
      "runs": 200
    },
    "outputSelection": {
      "*": {
        "*": [
          "abi",
          "evm.bytecode",
          "evm.deployedBytecode",
          "evm.methodIdentifiers",
          "metadata",
          "devdoc",
          "userdoc",
          "storageLayout",
          "evm.gasEstimates"
        ],
        "": [
          "ast"
        ]
      }
    },
    "metadata": {
      "useLiteralContent": true
    }
  }
}